  #X Y
  
  0  1.0000000000000000 
  1  0.4142135623730951 
  2  0.1892071150027210 
  3  0.0905077326652577 
  4  0.0442737824274138 
  5  0.0218971486541166 
  6  0.0108892860517005 
  7  0.0054299011128027 
  8  0.0027112750502025 
  9  0.0013547198921082 
  10  0.0006771306930664 
  11  0.0003385080526823 
  12  0.0001692397053021 
  13  0.0000846162726942 
  14  0.0000423072413958 
  15  0.0000211533969647 
  16  0.0000105766425498 
  17  0.0000052883072919 
  18  0.0000026441501502 
  19  0.0000013220742012 
  20  0.0000006610368821 
  21  0.0000003305183864 
  22  0.0000001652591797 
  23  0.0000000826295865 
  24  0.0000000413147925 
  25  0.0000000206573960 
  26  0.0000000103286979 
  27  0.0000000051643489 
  28  0.0000000025821745 
  29  0.0000000012910872 
  30  0.0000000006455436 
  31  0.0000000003227718 
  32  0.0000000001613858 
  33  0.0000000000806928 
  34  0.0000000000403464 
  35  0.0000000000201732 
  36  0.0000000000100866 
  37  0.0000000000050433 
  38  0.0000000000025215 
  39  0.0000000000012608 
  40  0.0000000000006304 
  41  0.0000000000003151 
  42  0.0000000000001574 
  43  0.0000000000000786 
  44  0.0000000000000393 
  45  0.0000000000000195 
  46  0.0000000000000098 
  47  0.0000000000000049 
  48  0.0000000000000024 
  49  0.0000000000000011 
  50  0.0000000000000004 
  51  0.0000000000000002 
  52  0.0000000000000000 
  53  0.0000000000000000 
  54  0.0000000000000000 
  55  0.0000000000000000 
  56  0.0000000000000000 
  57  0.0000000000000000 
  58  0.0000000000000000 
  59  0.0000000000000000 
  60  0.0000000000000000 
  61  0.0000000000000000 
  62  0.0000000000000000 
  63  0.0000000000000000 
  64  0.0000000000000000 
  65  0.0000000000000000 
  66  0.0000000000000000 
  67  0.0000000000000000 
  68  0.0000000000000000 
  69  0.0000000000000000 
  70  0.0000000000000000 
  71  0.0000000000000000 
  72  0.0000000000000000 
  73  0.0000000000000000 
  74  0.0000000000000000 
  75  0.0000000000000000 
  76  0.0000000000000000 
  77  0.0000000000000000 
  78  0.0000000000000000 
  79  0.0000000000000000 
  80  0.0000000000000000 
  81  0.0000000000000000 
  82  0.0000000000000000 
  83  0.0000000000000000 
  84  0.0000000000000000 
  85  0.0000000000000000 
  86  0.0000000000000000 
  87  0.0000000000000000 
  88  0.0000000000000000 
  89  0.0000000000000000 
  90  0.0000000000000000 
  91  0.0000000000000000 
  92  0.0000000000000000 
  93  0.0000000000000000 
  94  0.0000000000000000 
  95  0.0000000000000000 
  96  0.0000000000000000 
  97  0.0000000000000000 
  98  0.0000000000000000 
  99  0.0000000000000000 
